<?xml version="1.0" encoding="UTF-8" standalone="no"?>
<svg
   xmlns:dc="http://purl.org/dc/elements/1.1/"
   xmlns:cc="http://creativecommons.org/ns#"
   xmlns:rdf="http://www.w3.org/1999/02/22-rdf-syntax-ns#"
   xmlns:svg="http://www.w3.org/2000/svg"
   xmlns="http://www.w3.org/2000/svg"
   width="43.606998"
   height="43.606998"
   viewBox="0 0 43.606998 43.606998"
   version="1.1"
   id="svg8">
  <defs
     id="defs2" />
  <metadata
     id="metadata5">
    <rdf:RDF>
      <cc:Work
         rdf:about="">
        <dc:format>image/svg+xml</dc:format>
        <dc:type
           rdf:resource="http://purl.org/dc/dcmitype/StillImage" />
        <dc:title></dc:title>
      </cc:Work>
    </rdf:RDF>
  </metadata>
  <circle
     style="fill:#ffffff;fill-opacity:0;stroke:#ffffff;stroke-width:0.61920166;stroke-miterlimit:4;stroke-dasharray:none;stroke-opacity:1"
     r="3.0678992"
     cy="35.101368"
     cx="29.780527"
     id="path4524-1-0-8-1" />
  <circle
     style="fill:#ffffff;fill-opacity:0;stroke:#ffffff;stroke-width:0.61920166;stroke-miterlimit:4;stroke-dasharray:none;stroke-opacity:1"
     r="3.0678992"
     cy="8.6576414"
     cx="30.030596"
     id="path4524-1-0" />
  <circle
     style="fill:#ffffff;fill-opacity:0;stroke:#ffffff;stroke-width:0.61920166;stroke-miterlimit:4;stroke-dasharray:none;stroke-opacity:1"
     r="3.0678992"
     cy="21.872362"
     cx="6.4972477"
     id="path4524-1-0-8" />
  <circle
     style="fill:#ffffff;fill-opacity:0;stroke:#ffffff;stroke-width:2.1790843;stroke-miterlimit:4;stroke-dasharray:none;stroke-opacity:1"
     r="9.7879581"
     cy="21.803499"
     cx="21.803499"
     id="path4524" />
  <circle
     style="fill:#ffffff;fill-opacity:0;stroke:#ffffff;stroke-width:1.47081399;stroke-miterlimit:4;stroke-dasharray:none;stroke-opacity:1"
     r="21.068092"
     cy="21.803499"
     cx="21.803499"
     id="path4524-6" />
  <circle
     r="1.9195"
     style="fill:#ffffff;stroke-width:0.063;stroke-miterlimit:4;stroke-dasharray:none;stroke:#ffffff;stroke-opacity:1"
     cy="35.101368"
     cx="29.780527"
     id="path4520-8-4-6-9" />
  <circle
     r="1.9195"
     style="fill:#ffffff;stroke-width:0.063;stroke-miterlimit:4;stroke-dasharray:none;stroke:#ffffff;stroke-opacity:1"
     cy="8.6576414"
     cx="30.030596"
     id="path4520-8-4" />
  <circle
     r="1.9195"
     style="fill:#ffffff;stroke-width:0.063;stroke-miterlimit:4;stroke-dasharray:none;stroke:#ffffff;stroke-opacity:1"
     cy="21.872362"
     cx="6.4972477"
     id="path4520-8-4-6" />
  <circle
     r="6.9000001"
     style="fill:#ffffff;stroke-width:0.063;stroke-miterlimit:4;stroke-dasharray:none;stroke:#ffffff;stroke-opacity:1"
     cy="21.803499"
     cx="21.803499"
     id="path4520" />
</svg>
